Statistics Course Answers
…
Take someone who has had the disease for 10 years. Their logit is 10 times the coefficient of 0.13 minus the constant -0.94 to give 0.37. Plug 0.37 into the equation (exp(0.37)/(exp(0.37)+1)) and you get 59%. Someone who has had the disease for 3 years has a logit of -0.55 giving a risk (exp(-0.55)/(exp(-0.55)+1)) of 37%.

If you wanted to get flashy, you could work out the risk for each year between 2 and 18 and get a graph. But R can do this automatically for you: you can create a variable with the risk of mutation for each observation based on the duration of disease using the augment function. The column that contains the risk is called .fitted. Since this is a logistic regression model, we also need to specify type.predict = "response" to get the predicted probabilities.

# Create predictions
lesson5b_pred <-
  augment(mutate_model,
          newdata = lesson5b,
          type.predict = "response")

# Show resulting dataset
lesson5b_pred

## # A tibble: 124 x 4
##    mutation     c .fitted .se.fit
##       <dbl> <dbl>   <dbl>   <dbl>
##  1        1    11   0.623  0.0488
##  2        0     6   0.462  0.0637
##  3        1    12   0.653  0.0535
##  4        1     9   0.559  0.0461
##  5        0    13   0.682  0.0590
##  6        1     9   0.559  0.0461
##  7        0     8   0.527  0.0495
##  8        1     6   0.462  0.0637
##  9        0    11   0.623  0.0488
## 10        0     4   0.397  0.0811
## # ... with 114 more rows
…
