9 Assignment Answers | MSKCC Biostatistics Course
…
The sub-group analyses

A common mistake would be to use epi.2by2 with response and sex. However, this would examine whether, regardless of chemotherapy regimen used, men and women had different tumor outcome. What we want to see if the difference between treatment a and b changes depending on whether male or female patients are being treated. As a start, try:

# You can use the "group_split" function to split your dataset into two groups

lesson4d_sex <-
  lesson4d %>%
  group_split(sex)

# The first dataset, indicated by lesson4d_sex[[1]], is males
lesson4d_sex[[1]]

## # A tibble: 294 x 6
##       id chemo   age   sex response group
##    <dbl> <chr> <dbl> <dbl>    <dbl> <dbl>
##  1  2032 a        47     0        1     0
##  2  3950 a        47     0        0     0
##  3  2394 a        25     0        1     0
##  4  2481 b        53     0        0     1
##  5  1263 a        64     0        1     0
##  6  1233 b        50     0        0     1
##  7  1034 b        34     0        1     1
##  8  4736 b        68     0        0     1
##  9  2319 a        49     0        0     0
## 10  1676 b        44     0        0     1
## # ... with 284 more rows

# The second dataset, indicated by lesson4d_sex[[2]], is females
lesson4d_sex[[2]]

## # A tibble: 106 x 6
##       id chemo   age   sex response group
##    <dbl> <chr> <dbl> <dbl>    <dbl> <dbl>
##  1  4743 a        49     1        0     0
##  2  1318 a        64     1        0     0
##  3  3579 a        28     1        1     0
##  4  4839 a        32     1        0     0
##  5  3465 b        49     1        0     1
##  6  3111 b        34     1        1     1
##  7  3378 b        35     1        0     1
##  8  3408 a        46     1        0     0
##  9  1991 b        45     1        0     1
## 10  2600 b        45     1        1     1
## # ... with 96 more rows
…
Take someone who has had the disease for 10 years. Their logit is 10 times the coefficient of 0.13 minus the constant -0.94 to give 0.37. Plug 0.37 into the equation (exp(0.37)/(exp(0.37)+1)) and you get 59%. Someone who has had the disease for 3 years has a logit of -0.55 giving a risk (exp(-0.55)/(exp(-0.55)+1)) of 37%.

If you wanted to get flashy, you could work out the risk for each year between 2 and 18 and get a graph. But R can do this automatically for you: you can create a variable with the risk of mutation for each observation based on the duration of disease using the augment function. The column that contains the risk is called “.fitted”. Since this is a logistic regression model, we also need to specify type.predict = "response" to get the predicted probabilities.

# Create predictions
lesson5b_pred <-
  augment(mutate_model,
          newdata = lesson5b,
          type.predict = "response")

# Show resulting dataset
lesson5b_pred

## # A tibble: 124 x 4
##    mutation     c .fitted .se.fit
##       <dbl> <dbl>   <dbl>   <dbl>
##  1        1    11   0.623  0.0488
##  2        0     6   0.462  0.0637
##  3        1    12   0.653  0.0535
##  4        1     9   0.559  0.0461
##  5        0    13   0.682  0.0590
##  6        1     9   0.559  0.0461
##  7        0     8   0.527  0.0495
##  8        1     6   0.462  0.0637
##  9        0    11   0.623  0.0488
## 10        0     4   0.397  0.0811
## # ... with 114 more rows
…
