…
``` r
# The "augment" function creates a dataset of all patients included in the model
# and all variables included in the model, as well as the predictions
lesson3d_pred <- augment(rom_model)

# Print out new dataset to show output from "augment"
# The ".fitted" column is your prediction
# You can ignore all columns to the right of ".fitted"
lesson3d_pred
```

```
## # A tibble: 34 × 10
##        a   sex   age     b .fitted  .resid   .hat .sigma   .cooksd .std.resid
##    <dbl> <dbl> <dbl> <dbl>   <dbl>   <dbl>  <dbl>  <dbl>     <dbl>      <dbl>
##  1   247     1    24   263    307. -60.1   0.201    22.5 0.447        -2.66  
##  2   324     0    73   339    334.  -9.79  0.129    25.7 0.00638      -0.415 
##  3   351     0    40   361    363. -11.9   0.0947   25.6 0.00639      -0.494 
##  4   232     0    74   234    263. -31.1   0.113    25.0 0.0540       -1.30  
##  5   328     0    51   329    337.  -8.68  0.0542   25.7 0.00178      -0.353 
##  6   380     0    26   376    379.   0.966 0.164    25.7 0.0000853     0.0417
##  7   302     0    54   297    314. -12.0   0.0411   25.6 0.00250      -0.483 
##  8   254     0    39   249    288. -34.4   0.0832   24.8 0.0457       -1.42  
##  9   250     1    65   244    277. -26.5   0.131    25.2 0.0480       -1.13  
## 10   252     0    81   246    268. -16.1   0.144    25.5 0.0197       -0.686 
## # ℹ 24 more rows
```
…
``` r
# Get predictions from logistic regression model
# type.predict = "response" gives predicted probabilities
lesson4d_pred <-
  augment(response_model, type.predict = "response")

# Look at the dataset containing predicted probabilities (.fitted variable)
# You can ignore all columns to the right of ".fitted"
lesson4d_pred
```

```
## # A tibble: 398 × 11
##    .rownames response   age   sex group .fitted .resid    .hat .sigma .cooksd
##    <chr>        <dbl> <dbl> <dbl> <dbl>   <dbl>  <dbl>   <dbl>  <dbl>   <dbl>
##  1 1                1    47     0     0   0.469  1.23  0.00612   1.17 0.00176
##  2 2                0    47     0     0   0.469 -1.12  0.00612   1.17 0.00137
##  3 3                1    25     0     0   0.595  1.02  0.0129    1.17 0.00226
##  4 4                0    53     0     1   0.358 -0.941 0.00841   1.17 0.00119
##  5 5                1    64     0     0   0.372  1.41  0.0154    1.17 0.00669
##  6 6                0    50     0     1   0.374 -0.968 0.00738   1.17 0.00112
##  7 7                1    34     0     1   0.465  1.24  0.00838   1.17 0.00245
##  8 8                0    68     0     1   0.282 -0.814 0.0178    1.17 0.00182
##  9 9                0    49     0     0   0.457 -1.11  0.00659   1.17 0.00140
## 10 10               0    44     0     1   0.407 -1.02  0.00641   1.17 0.00112
## # ℹ 388 more rows
## # ℹ 1 more variable: .std.resid <dbl>
```
…
