5 Week 5 | MSKCC Biostatistics Course
…
The first column of numbers listed under “Coefficients” are the coefficients. You can interpret this as follows: start with 138.7 degrees of range of motion (the intercept or constant). Then add 2.85 if the patient is a woman, and take away 0.436 degrees for every year of age. Find, add 0.669 degrees for every degree of range of motion the patient had before the trial.

Let’s take a single patient: a 54 year old woman with a range of motion of 301 before treatment. Her predicted range of motion afterwards is 138.7 + 2.85 - 0.436*54 + 0.669*301 = 319.5. Her actual figure was 325, so we predicted quite well for this patient. You can get R to do this automatically using the augment function from the broom package.

# The "augment" function creates a dataset of all patients included in the model
# and all variables included in the model, as well as the predictions
lesson3d_pred <- augment(rom_model)

# Print out new dataset to show output from "augment"
# The ".fitted" column is your prediction
# You can ignore all columns to the right of ".fitted"
lesson3d_pred

## # A tibble: 34 x 11
##        a   sex   age     b .fitted .se.fit  .resid   .hat .sigma .cooksd
##    <dbl> <dbl> <dbl> <dbl>   <dbl>   <dbl>   <dbl>  <dbl>  <dbl>   <dbl>
##  1   247     1    24   263    307.   11.4  -60.1   0.201    22.5 4.47e-1
##  2   324     0    73   339    334.    9.09  -9.79  0.129    25.7 6.38e-3
##  3   351     0    40   361    363.    7.78 -11.9   0.0947   25.6 6.39e-3
##  4   232     0    74   234    263.    8.49 -31.1   0.113    25.0 5.40e-2
##  5   328     0    51   329    337.    5.89  -8.68  0.0542   25.7 1.78e-3
##  6   380     0    26   376    379.   10.2    0.966 0.164    25.7 8.53e-5
##  7   302     0    54   297    314.    5.13 -12.0   0.0411   25.6 2.50e-3
##  8   254     0    39   249    288.    7.29 -34.4   0.0832   24.8 4.57e-2
##  9   250     1    65   244    277.    9.17 -26.5   0.131    25.2 4.80e-2
## 10   252     0    81   246    268.    9.58 -16.1   0.144    25.5 1.97e-2
## # ... with 24 more rows, and 1 more variable: .std.resid <dbl>
…
The key things here are the odds ratios: you can say that the odds of response is multiplied by 0.98 for a one year increase in age; that women have an odds of response 0.84 of that for the men, though this is not statistically significant, and that response is lower in group 1, with an odds of 0.73 (you would also cite the p value and 95% CIs).

The problem here is that you can’t use any of these data to work out an individual patient’s chance of response. Now you can get R to do this for you using the augment function. For a binary outcome, you need to specify type.predict = "response" as an option so that you will get predicted probabilities (not log odds).

# Get predictions from logistic regression model
# type.predict = "response" gives predicted probabilities
lesson4d_pred <-
  augment(response_model, type.predict = "response")

# Look at the dataset containing predicted probabilities (.fitted variable)
# You can ignore all columns to the right of ".fitted"
lesson4d_pred

## # A tibble: 398 x 12
##    .rownames response   age   sex group .fitted .se.fit .resid    .hat
##    <chr>        <dbl> <dbl> <dbl> <dbl>   <dbl>   <dbl>  <dbl>   <dbl>
##  1 1                1    47     0     0   0.469  0.0391  1.23  0.00612
##  2 2                0    47     0     0   0.469  0.0391 -1.12  0.00612
##  3 3                1    25     0     0   0.595  0.0558  1.02  0.0129 
##  4 4                0    53     0     1   0.358  0.0440 -0.941 0.00841
##  5 5                1    64     0     0   0.372  0.0600  1.41  0.0154 
##  6 6                0    50     0     1   0.374  0.0416 -0.968 0.00738
##  7 7                1    34     0     1   0.465  0.0456  1.24  0.00838
##  8 8                0    68     0     1   0.282  0.0601 -0.814 0.0178 
##  9 9                0    49     0     0   0.457  0.0404 -1.11  0.00659
## 10 10               0    44     0     1   0.407  0.0393 -1.02  0.00641
## # ... with 388 more rows, and 3 more variables: .sigma <dbl>,
## #   .cooksd <dbl>, .std.resid <dbl>
…
