1 Week 1 | MSKCC Biostatistics Course
…
# These two pieces of code will also give the same results
skim(lesson1a$age)
lesson1a %>% skim(age)

In this example, the pipe operator is not particularly useful - it actually involves more typing (lesson1a %>% skim()) than not using the pipe operator (skim(lesson1a)).

However, the pipe operator is very helpful in more complex code. Here is an example of two pieces of code that do the same thing, with the second example using the pipe notation. You don’t need to understand what this code does, but you can see that the pipe notation makes the code shorter and easier to read. It allows you to see what is happening in the code in order from left to right and top to bottom, while the code without pipes has to be read from the inside (the innermost set of parentheses) to the outside (the outermost set of parentheses).

# Without piping
new_data <- 
  select(filter(mutate(trial, trt = as_factor(str_sub(str_to_upper(trt), 1, 4))), age > 60), trt, age, marker, stage, grade)

new_data

## # A tibble: 37 × 5
##    trt     age marker stage grade
##    <fct> <dbl>  <dbl> <fct> <fct>
##  1 DRUG     63  0.06  T3    I    
##  2 DRUG     71  0.445 T4    III  
##  3 DRUG     61  1.71  T4    I    
##  4 DRUG     63  0.981 T4    II   
##  5 DRUG     67  1.16  T1    II   
##  6 DRUG     68  0.105 T4    II   
##  7 DRUG     78  0.175 T3    I    
##  8 DRUG     61  0.177 T4    III  
##  9 DRUG     71  0.737 T1    I    
## 10 DRUG     83  0.475 T1    III  
## # ℹ 27 more rows

# With piping
new_data_pipe <-
  trial %>%
  mutate(
    trt = str_to_upper(trt) %>%
      str_sub(1, 4) %>%
      as_factor()
  ) %>%
  select(trt, age, marker, stage, grade) %>%
  filter(age > 60)

new_data_pipe

## # A tibble: 37 × 5
##    trt     age marker stage grade
##    <fct> <dbl>  <dbl> <fct> <fct>
##  1 DRUG     63  0.06  T3    I    
##  2 DRUG     71  0.445 T4    III  
##  3 DRUG     61  1.71  T4    I    
##  4 DRUG     63  0.981 T4    II   
##  5 DRUG     67  1.16  T1    II   
##  6 DRUG     68  0.105 T4    II   
##  7 DRUG     78  0.175 T3    I    
##  8 DRUG     61  0.177 T4    III  
##  9 DRUG     71  0.737 T1    I    
## 10 DRUG     83  0.475 T1    III  
## # ℹ 27 more rows

1.2.5.3 Assignment Operator (<-)

The assignment operator allows you save out changes you have made, for example, changes to datasets, or new objects you have created, like a table. You can make changes to a dataset, which will print in the console window. However, you must use the assignment operator to store out these changes.

Below is an example of how to create a dataset that contains only patients in the “Drug A” group and how to save this dataset out. You do not need to know all of these functions at this point, although you will learn them in the future.

Note: the trial dataset is automatically loaded when you load the {gtsummary} package, which we’ve done above, so this dataset does not have to be manually loaded like the lesson1a dataset.

# Here we are only keeping patients from the "Drug A" group
trial %>%
  filter(trt == "Drug A")

## # A tibble: 98 × 8
##    trt      age marker stage grade response death ttdeath
##    <chr>  <dbl>  <dbl> <fct> <fct>    <int> <int>   <dbl>
##  1 Drug A    23  0.16  T1    II           0     0    24  
##  2 Drug A    31  0.277 T1    II           0     0    24  
##  3 Drug A    NA  2.07  T3    III          1     1    17.6
##  4 Drug A    51  2.77  T4    III          1     1    16.4
##  5 Drug A    37  0.354 T1    II           0     0    24  
##  6 Drug A    32  1.74  T1    I            0     1    18.4
##  7 Drug A    31  0.144 T1    II           0     0    24  
##  8 Drug A    38  2.08  T4    III          1     0    24  
##  9 Drug A    57  0.066 T1    III          0     0    24  
## 10 Drug A    46  0.325 T1    II           0     0    24  
## # ℹ 88 more rows

You can see that the data that prints out only includes observations where “trt” is “Drug A”. While this dataset printed out, it no longer exists, because we did not give it a name and save it out. You can see this below - the dataset still has all observations.

# Print original dataset to confirm no changes
trial

## # A tibble: 200 × 8
##    trt      age marker stage grade response death ttdeath
##    <chr>  <dbl>  <dbl> <fct> <fct>    <int> <int>   <dbl>
##  1 Drug A    23  0.16  T1    II           0     0    24  
##  2 Drug B     9  1.11  T2    I            1     0    24  
##  3 Drug A    31  0.277 T1    II           0     0    24  
##  4 Drug A    NA  2.07  T3    III          1     1    17.6
##  5 Drug A    51  2.77  T4    III          1     1    16.4
##  6 Drug B    39  0.613 T4    I            0     1    15.6
##  7 Drug A    37  0.354 T1    II           0     0    24  
##  8 Drug A    32  1.74  T1    I            0     1    18.4
##  9 Drug A    31  0.144 T1    II           0     0    24  
## 10 Drug B    34  0.205 T3    I            0     1    10.5
## # ℹ 190 more rows

Sometimes, this is fine - for example, if you simply want to take a look at the data. If you need to use this data again, give the dataset a name and use the assignment operator.

# Save out dataset including only patients in drug group
trial_drug <-
  trial %>%
  filter(trt == "Drug A")

trial_drug

## # A tibble: 98 × 8
##    trt      age marker stage grade response death ttdeath
##    <chr>  <dbl>  <dbl> <fct> <fct>    <int> <int>   <dbl>
##  1 Drug A    23  0.16  T1    II           0     0    24  
##  2 Drug A    31  0.277 T1    II           0     0    24  
##  3 Drug A    NA  2.07  T3    III          1     1    17.6
##  4 Drug A    51  2.77  T4    III          1     1    16.4
##  5 Drug A    37  0.354 T1    II           0     0    24  
##  6 Drug A    32  1.74  T1    I            0     1    18.4
##  7 Drug A    31  0.144 T1    II           0     0    24  
##  8 Drug A    38  2.08  T4    III          1     0    24  
##  9 Drug A    57  0.066 T1    III          0     0    24  
## 10 Drug A    46  0.325 T1    II           0     0    24  
## # ℹ 88 more rows
…
